{
  "keyCode" : "thirdForm",
  "label" : "Third Form",
  "sections" : [
    {
      "keyCode" : "testSectionC#",
      "label" : "C#",
      "fields" : [
        {
          "keyCode" : "fieldVariables",
          "label" : "Collections",
          "fieldType" : "FEEDBACK"
        },
        {
          "keyCode" : "fieldReflect",
          "label" : "Reflect",
          "fieldType" : "BOOLEAN"
        }
      ]
    },
    {
      "keyCode" : "testSectionSQL",
      "label" : "SQL",
      "fields" : [
        {
          "keyCode" : "fieldJoinTypes",
          "label" : "Join types",
          "fieldType" : "FEEDBACK"
        },
        {
          "keyCode" : "fieldSubqueries",
          "label" : "Subqueries",
          "fieldType" : "BOOLEAN"
        },
        {
          "keyCode" : "fieldPracticalTask",
          "label" : "Practical Task",
          "fieldType" : "FEEDBACK"
        }
      ]
    },
    {
      "keyCode" : "testSectionRuby",
      "label" : "Ruby",
      "fields" : [
        {
          "keyCode" : "fieldVersion",
          "label" : "Version",
          "fieldType" : "DROP_DOWN",
          "options": [
            {
              "label": "1.0",
              "value": "v2"
            },
            {
              "label": "1.1",
              "value": "v3"
            },
            {
              "label": "1.2",
              "value": "v4"
            },
            {
              "label": "1.2",
              "value": "v5"
            }
          ]
        },
        {
          "keyCode" : "fieldFramework",
          "label" : "Framework",
          "fieldType" : "DROP_DOWN",
          "options": [
            {
              "label": "1.0",
              "value": "v2"
            },
            {
              "label": "1.1",
              "value": "v3"
            },
            {
              "label": "1.2",
              "value": "v4"
            },
            {
              "label": "1.2",
              "value": "v5"
            }
          ]
        }
      ]
    }
  ]
}